Spatial and Spatio-temporal Modelling
…
toc <- Sys.time()
toc - tic # ~ 2minutes
# saveRDS(modelGS.sim, file = "NIMBLE_IDD_A1")

It’s good practice to save samples, especially if model runtimes get long. Let’s load the samples back up.

What is the summary of each estimated parameter?

summarise_draws(modelGS.sim$samples, default_summary_measures())

# A tibble: 951 × 7
   variable  mean median     sd    mad    q5   q95
   <chr>    <num>  <num>  <num>  <num> <num> <num>
 1 RR[1]    1.37   1.37  0.130  0.131  1.17   1.59
 2 RR[2]    1.96   1.96  0.137  0.137  1.72   2.17
 3 RR[3]    1.02   1.01  0.0970 0.0889 0.875  1.17
 4 RR[4]    0.981  0.980 0.0796 0.0764 0.852  1.11
 5 RR[5]    0.926  0.919 0.0951 0.0912 0.781  1.10
 6 RR[6]    1.36   1.36  0.122  0.118  1.15   1.58
 7 RR[7]    1.36   1.36  0.0834 0.0829 1.23   1.50
 8 RR[8]    0.937  0.936 0.0906 0.0914 0.787  1.08
 9 RR[9]    1.13   1.12  0.0887 0.0898 0.993  1.29
10 RR[10]   1.25   1.25  0.0856 0.0783 1.12   1.41
# ℹ 941 more rows

The Gelman-Rubin diagnostic (\(\widehat{R}\)) The Gelman-Rubin diagnostic evaluates MCMC convergence by analyzing the difference between multiple Markov chains. The convergence is assessed by comparing the estimated between-chains and within-chain variances for each model parameter. Large differences between these variances indicate nonconvergence. When the scale reduction factor is high (perhaps greater than 1.1), then we should run our chains out longer to improve convergence to the stationary distribution.

summarise_draws(modelGS.sim$samples, default_convergence_measures())

# A tibble: 951 × 4
   variable  rhat ess_bulk ess_tail
   <chr>    <num>    <num>    <num>
 1 RR[1]    1.01      331.     292.
 2 RR[2]    0.998     340.     447.
 3 RR[3]    0.998     435.     335.
 4 RR[4]    0.997     454.     408.
 5 RR[5]    1.00      435.     334.
 6 RR[6]    0.998     396.     365.
 7 RR[7]    1.01      339.     404.
 8 RR[8]    1.00      399.     407.
 9 RR[9]    1.01      369.     403.
10 RR[10]   1.00      415.     324.
# ℹ 941 more rows
…
