Introduction to Bayesian Methods
…
set.seed(1)
x1 <- round(rnorm(n), 2)
x2 <- round(rnorm(n), 2)
x3 <- round(rnorm(n), 2)

z <- 1 + 2 * x1 + 3 * x2 - 5 * x3 # linear combination with a bias of 1
pr <- 1 / (1 + exp(-z)) # pass through an inv-logit function
y <- rbinom(n, 1, pr) # bernoulli response variable

What does the dataset look like?

df <- tibble(y = y, x1 = x1, x2 = x2, x3 = x3)
df

# A tibble: 10,000 × 4
       y    x1    x2    x3
   <int> <dbl> <dbl> <dbl>
 1     0 -0.63 -0.8   0.24
 2     0  0.18 -1.06  0.24
 3     1 -0.84 -1.04 -0.64
 4     1  1.6  -1.19 -1.93
 5     0  0.33 -0.5   1.04
 6     0 -0.82 -0.52 -0.28
 7     1  0.49 -0.3  -1.41
 8     0  0.74  0.47  0.72
 9     0  0.58 -0.25  2.03
10     1 -0.31  1.26  0.73
# ℹ 9,990 more rows
…
set.seed(1)
x1 <- round(rnorm(n), 2)
x2 <- round(rnorm(n), 2)
x3 <- round(rnorm(n), 2)

z <- 4 + 0.3 * x1 - 0.1 * x2 + 0.6 * x3
lambda <- exp(z)
y <- rpois(n, lambda)

What does the dataset look like?

df <- tibble(y = y, x1 = x1, x2 = x2, x3 = x3)
df

# A tibble: 10,000 × 4
       y    x1    x2    x3
   <int> <dbl> <dbl> <dbl>
 1    61 -0.63 -0.8   0.24
 2    81  0.18 -1.06  0.24
 3    29 -0.84 -1.04 -0.64
 4    39  1.6  -1.19 -1.93
 5   113  0.33 -0.5   1.04
 6    43 -0.82 -0.52 -0.28
 7    32  0.49 -0.3  -1.41
 8   106  0.74  0.47  0.72
 9   208  0.58 -0.25  2.03
10    70 -0.31  1.26  0.73
# ℹ 9,990 more rows
…
