Bayesian Regression and Temporal modelling
…
running chain 1...

|-------------|-------------|-------------|-------------|
|-------------------------------------------------------|

toc <- Sys.time()
toc - tic

Time difference of 10.3176 secs

What is the summary of each estimated parameter from the model with the random walk over time included?

summarise_draws(nimbleMCMC_samples_week_random_walk, default_summary_measures())

# A tibble: 1,045 × 7
   variable    mean median     sd    mad    q5   q95
   <chr>      <num>  <num>  <num>  <num> <num> <num>
 1 alpha      -8.64  -8.64 0.0112 0.0110 -8.66 -8.62
 2 lograte[1] -8.64  -8.64 0.0112 0.0110 -8.66 -8.62
 3 lograte[2] -8.59  -8.59 0.0108 0.0107 -8.61 -8.57
 4 lograte[3] -8.63  -8.63 0.0107 0.0102 -8.65 -8.61
 5 lograte[4] -8.66  -8.66 0.0112 0.0111 -8.68 -8.64
 6 lograte[5] -8.65  -8.65 0.0108 0.0107 -8.67 -8.63
 7 lograte[6] -8.67  -8.67 0.0106 0.0103 -8.69 -8.66
 8 lograte[7] -8.63  -8.63 0.0110 0.0110 -8.65 -8.62
 9 lograte[8] -8.66  -8.66 0.0113 0.0114 -8.68 -8.64
10 lograte[9] -8.74  -8.74 0.0114 0.0116 -8.75 -8.72
# ℹ 1,035 more rows

And how good do convergence indicators look?

summarise_draws(nimbleMCMC_samples_week_random_walk, default_convergence_measures())

# A tibble: 1,045 × 4
   variable    rhat ess_bulk ess_tail
   <chr>      <num>    <num>    <num>
 1 alpha       1.00    1114.    1160.
 2 lograte[1]  1.00    1114.    1160.
 3 lograte[2]  1.00    1157.    1114.
 4 lograte[3]  1.00    1112.    1264.
 5 lograte[4]  1.00    1200.    1206.
 6 lograte[5]  1.00    1184.    1374.
 7 lograte[6]  1.00    1158.    1378.
 8 lograte[7]  1.01    1022.    1226.
 9 lograte[8]  1.00    1018.    1153.
10 lograte[9]  1.00    1154.    1170.
# ℹ 1,035 more rows
…
running chain 1...

|-------------|-------------|-------------|-------------|
|-------------------------------------------------------|

toc <- Sys.time()
toc - tic

Time difference of 12.43949 secs

What is the summary of each estimated parameter from the model with the random walk over time included but with more samples?

summarise_draws(nimbleMCMC_samples_week_random_walk_more_samples, default_summary_measures())

# A tibble: 1,045 × 7
   variable    mean median     sd    mad    q5   q95
   <chr>      <num>  <num>  <num>  <num> <num> <num>
 1 alpha      -8.64  -8.64 0.0109 0.0109 -8.66 -8.62
 2 lograte[1] -8.64  -8.64 0.0109 0.0109 -8.66 -8.62
 3 lograte[2] -8.59  -8.59 0.0107 0.0107 -8.61 -8.57
 4 lograte[3] -8.63  -8.63 0.0110 0.0111 -8.65 -8.61
 5 lograte[4] -8.66  -8.66 0.0109 0.0110 -8.68 -8.64
 6 lograte[5] -8.65  -8.65 0.0110 0.0112 -8.67 -8.63
 7 lograte[6] -8.67  -8.67 0.0112 0.0114 -8.69 -8.66
 8 lograte[7] -8.63  -8.63 0.0109 0.0110 -8.65 -8.62
 9 lograte[8] -8.66  -8.66 0.0110 0.0109 -8.68 -8.64
10 lograte[9] -8.74  -8.74 0.0114 0.0109 -8.76 -8.72
# ℹ 1,035 more rows

And how good do convergence indicators look?

summarise_draws(nimbleMCMC_samples_week_random_walk_more_samples, default_convergence_measures())

# A tibble: 1,045 × 4
   variable    rhat ess_bulk ess_tail
   <chr>      <num>    <num>    <num>
 1 alpha       1.00    2109.    2326.
 2 lograte[1]  1.00    2109.    2326.
 3 lograte[2]  1.00    2439.    2230.
 4 lograte[3]  1.00    2120.    2356.
 5 lograte[4]  1.00    2305.    2442.
 6 lograte[5]  1.00    1962.    2008.
 7 lograte[6]  1.00    2376.    2629.
 8 lograte[7]  1.00    2493.    2361.
 9 lograte[8]  1.00    2317.    2610.
10 lograte[9]  1.00    2296.    2801.
# ℹ 1,035 more rows
…
running chain 1...

|-------------|-------------|-------------|-------------|
|-------------------------------------------------------|

toc <- Sys.time()
toc - tic

Time difference of 13.64444 secs

What is the summary of each estimated parameter from the model with the random walk over time and single linear temperature term?

summarise_draws(nimbleMCMC_samples_week_random_walk_with_temperature, default_summary_measures())

# A tibble: 1,046 × 7
   variable             mean   median      sd     mad       q5     q95
   <chr>               <num>    <num>   <num>   <num>    <num>   <num>
 1 alpha            -8.63    -8.63    0.0128  0.0131  -8.65    -8.61
 2 beta_temperature  0.00692  0.00614 0.00490 0.00424 -0.00157  0.0153
 3 lograte[1]       -8.64    -8.64    0.0112  0.0114  -8.66    -8.62
 4 lograte[2]       -8.59    -8.59    0.0106  0.0103  -8.61    -8.57
 5 lograte[3]       -8.63    -8.63    0.0107  0.0109  -8.65    -8.61
 6 lograte[4]       -8.66    -8.66    0.0113  0.0112  -8.68    -8.64
 7 lograte[5]       -8.65    -8.65    0.0110  0.0109  -8.67    -8.63
 8 lograte[6]       -8.67    -8.67    0.0109  0.0108  -8.69    -8.66
 9 lograte[7]       -8.63    -8.63    0.0111  0.0111  -8.65    -8.62
10 lograte[8]       -8.66    -8.66    0.0111  0.0115  -8.68    -8.64
# ℹ 1,036 more rows

And how good do convergence indicators look?

summarise_draws(nimbleMCMC_samples_week_random_walk_with_temperature, default_convergence_measures())

# A tibble: 1,046 × 4
   variable          rhat ess_bulk ess_tail
   <chr>            <num>    <num>    <num>
 1 alpha             1.01    37.8     284.
 2 beta_temperature  1.10     8.18     20.2
 3 lograte[1]        1.00  2274.     2345.
 4 lograte[2]        1.00  2257.     2192.
 5 lograte[3]        1.00  2495.     2610.
 6 lograte[4]        1.00  2186.     2657.
 7 lograte[5]        1.00  2167.     2064.
 8 lograte[6]        1.00  2592.     2912.
 9 lograte[7]        1.00  2230.     2451.
10 lograte[8]        1.00  2216.     2712.
# ℹ 1,036 more rows
…
running chain 1...

|-------------|-------------|-------------|-------------|
|-------------------------------------------------------|

toc <- Sys.time()
toc - tic

Time difference of 51.2359 secs

What is the summary of each estimated parameter from the model with the random walk over time and month-specific linear temperature term?

summarise_draws(nimbleMCMC_samples_week_random_walk_with_temperature_by_month, default_summary_measures())

# A tibble: 1,057 × 7
   variable                       mean    median     sd    mad      q5     q95
   <chr>                         <num>     <num>  <num>  <num>   <num>   <num>
 1 alpha                     -8.64     -8.64     0.0321 0.0334 -8.69   -8.59
 2 beta_temperature_month[1]  0.00291   0.00302  0.0232 0.0244 -0.0345  0.0408
 3 beta_temperature_month[2]  0.000919 -0.000326 0.0219 0.0229 -0.0367  0.0362
 4 beta_temperature_month[3]  0.00175   0.000733 0.0255 0.0276 -0.0357  0.0450
 5 beta_temperature_month[4]  0.00115   0.000875 0.0243 0.0263 -0.0378  0.0406
 6 beta_temperature_month[5]  0.00882   0.00739  0.0248 0.0256 -0.0310  0.0513
 7 beta_temperature_month[6]  0.00772   0.00900  0.0225 0.0229 -0.0319  0.0421
 8 beta_temperature_month[7]  0.0281    0.0281   0.0384 0.0398 -0.0347  0.0899
 9 beta_temperature_month[8]  0.0123    0.0103   0.0305 0.0294 -0.0359  0.0676
10 beta_temperature_month[9]  0.00580   0.00563  0.0295 0.0294 -0.0450  0.0566
# ℹ 1,047 more rows

And how good do convergence indicators look?

summarise_draws(nimbleMCMC_samples_week_random_walk_with_temperature_by_month, default_convergence_measures())

# A tibble: 1,057 × 4
   variable                   rhat ess_bulk ess_tail
   <chr>                     <num>    <num>    <num>
 1 alpha                      1.08    10.6      31.7
 2 beta_temperature_month[1]  1.09     9.55     46.7
 3 beta_temperature_month[2]  1.09     9.96     74.0
 4 beta_temperature_month[3]  1.05    13.0      30.7
 5 beta_temperature_month[4]  1.05    20.1      86.0
 6 beta_temperature_month[5]  1.03    22.5      80.7
 7 beta_temperature_month[6]  1.06    15.8      25.9
 8 beta_temperature_month[7]  1.00    29.7      43.1
 9 beta_temperature_month[8]  1.00    45.0      67.2
10 beta_temperature_month[9]  1.00    31.3     104.
# ℹ 1,047 more rows
…
